{
  "placement": {
    "type": "structure_gel:grid_placement",
    "allowed_near_spawn": false,
    "exclusion_zone": {
      "radius": 10,
      "structures": "#farlanders:farlander_village_bad_neighbors"
    },
    "frequency": 0.5,
    "offset": 14,
    "salt": 122338502,
    "spacing": 32,
    "structure": "farlanders:farlander_village"
  },
  "structures": [
    {
      "structure": "farlanders:farlander_village",
      "weight": 1
    }
  ]
}