{
  "placement": {
    "type": "structure_gel:grid_placement",
    "allowed_near_spawn": false,
    "exclusion_zone": {
      "radius": 10,
      "structures": "#farlanders:farlander_house_bad_neighbors"
    },
    "frequency": 0.5,
    "offset": 10,
    "salt": 1442351122,
    "spacing": 24,
    "structure": "farlanders:small_house"
  },
  "structures": [
    {
      "structure": "farlanders:small_house",
      "weight": 1
    }
  ]
}