{
  "parent": "farlanders:kill_classic_enderman",
  "criteria": {
    "kill_enderman": {
      "conditions": {
        "entity": {
          "type": "farlanders:classic_enderman"
        },
        "item": {
          "items": [
            "minecraft:iron_block"
          ]
        }
      },
      "trigger": "farlanders:classic_enderman_block"
    }
  },
  "display": {
    "description": {
      "translate": "advancement.iron_maiden.desc"
    },
    "icon": {
      "item": "minecraft:iron_block"
    },
    "title": {
      "translate": "advancement.iron_maiden"
    }
  },
  "requirements": [
    [
      "kill_enderman"
    ]
  ],
  "sends_telemetry_event": true
}