{
  "values": [
    "farlanders:mystic_wand_fire_small",
    "farlanders:mystic_wand_fire_large",
    "farlanders:mystic_wand_ore",
    "farlanders:mystic_wand_teleport",
    "farlanders:mystic_wand_regen",
    "farlanders:mystic_wand_invisible"
  ]
}