{
  "elements": [
    {
      "element": {
        "element_type": "structure_gel:gel_single_pool_element",
        "location": "farlanders:village/normal/centers/wooden_tower",
        "maintainWater": false,
        "processors": "farlanders:path_to_dirt_to_planks",
        "projection": "rigid"
      },
      "weight": 1
    },
    {
      "element": {
        "element_type": "structure_gel:gel_single_pool_element",
        "location": "farlanders:village/normal/centers/watch_tower",
        "maintainWater": false,
        "processors": "farlanders:path_to_dirt_to_planks",
        "projection": "rigid"
      },
      "weight": 1
    },
    {
      "element": {
        "element_type": "structure_gel:gel_single_pool_element",
        "location": "farlanders:village/normal/centers/gazebo",
        "maintainWater": false,
        "processors": "farlanders:path_to_dirt_to_planks",
        "projection": "rigid"
      },
      "weight": 1
    }
  ],
  "fallback": "minecraft:empty"
}