{
  "parent": "minecraft:recipes/root",
  "criteria": {
    "has_hide": {
      "conditions": {
        "items": [
          {
            "items": [
              "farlanders:titan_hide"
            ]
          }
        ]
      },
      "trigger": "minecraft:inventory_changed"
    },
    "has_the_recipe": {
      "conditions": {
        "recipe": "farlanders:nightfall_chestplate"
      },
      "trigger": "minecraft:recipe_unlocked"
    }
  },
  "requirements": [
    [
      "has_the_recipe",
      "has_hide"
    ]
  ],
  "rewards": {
    "recipes": [
      "farlanders:nightfall_chestplate"
    ]
  }
}