{
  "type": "minecraft:crafting_shaped",
  "category": "equipment",
  "key": {
    "X": {
      "item": "farlanders:titan_hide"
    }
  },
  "pattern": [
    "X X",
    "XXX",
    "XXX"
  ],
  "result": {
    "item": "farlanders:nightfall_chestplate"
  }
}