{
  "type": "minecraft:crafting_shaped",
  "category": "equipment",
  "key": {
    "#": {
      "item": "minecraft:stick"
    },
    "L": {
      "item": "farlanders:ender_horn"
    },
    "X": {
      "item": "minecraft:diamond"
    }
  },
  "pattern": [
    "LXL",
    "LXL",
    " # "
  ],
  "result": {
    "item": "farlanders:nightfall_sword"
  }
}